172.17.42.1 - - [09/Feb/2015:17:55:23 +0000] "GET /kbb08124/ HTTP/1.1" 404 987
172.17.42.1 - - [09/Feb/2015:17:55:23 +0000] "GET /check-to-see-it-is-up HTTP/1.1" 404 1011
172.17.42.1 - - [09/Feb/2015:17:55:23 +0000] "GET /check-to-see-it-is-up HTTP/1.1" 404 1011
172.17.42.1 - - [09/Feb/2015:17:56:17 +0000] "GET /kbb08124/ HTTP/1.1" 404 987
172.17.42.1 - - [09/Feb/2015:17:59:17 +0000] "GET /kbb08124/ HTTP/1.1" 404 987
172.17.42.1 - - [09/Feb/2015:18:02:17 +0000] "GET /kbb08124/ HTTP/1.1" 404 987
