172.17.42.1 - - [05/Feb/2015:13:56:32 +0000] "GET /check-to-see-it-is-up HTTP/1.1" 404 1011
172.17.42.1 - - [05/Feb/2015:13:56:32 +0000] "GET /check-to-see-it-is-up HTTP/1.1" 404 1011
172.17.42.1 - - [05/Feb/2015:13:56:32 +0000] "GET /check-to-see-it-is-up HTTP/1.1" 404 1011
172.17.42.1 - - [05/Feb/2015:13:56:32 +0000] "GET /kbb08124/index.html HTTP/1.1" 200 788
172.17.42.1 - - [05/Feb/2015:13:57:50 +0000] "GET /kbb08124/index.html HTTP/1.1" 404 1007
172.17.42.1 - - [05/Feb/2015:13:59:17 +0000] "GET /kbb08124/ HTTP/1.1" 404 987
172.17.42.1 - - [05/Feb/2015:13:59:47 +0000] "GET /kbb08124/ HTTP/1.1" 404 987
172.17.42.1 - - [05/Feb/2015:14:00:02 +0000] "GET /kbb08124/directory/index.html HTTP/1.1" 404 1027
172.17.42.1 - - [05/Feb/2015:14:00:31 +0000] "GET /kbb08124/ HTTP/1.1" 404 987
172.17.42.1 - - [05/Feb/2015:14:04:46 +0000] "GET /kbb08124/index.html HTTP/1.1" 404 1007
172.17.42.1 - - [05/Feb/2015:14:12:13 +0000] "GET /kbb08124/index.html HTTP/1.1" 404 1007
172.17.42.1 - - [05/Feb/2015:14:13:33 +0000] "GET /kbb08124/ HTTP/1.1" 404 987
172.17.42.1 - - [05/Feb/2015:14:14:45 +0000] "GET /kbb08124/index.html HTTP/1.1" 404 1007
172.17.42.1 - - [05/Feb/2015:14:15:38 +0000] "GET /kbb08124/2014/index.html HTTP/1.1" 404 1017
172.17.42.1 - - [05/Feb/2015:14:21:07 +0000] "GET /kbb08124/2014/index.html HTTP/1.1" 404 1017
172.17.42.1 - - [05/Feb/2015:14:21:18 +0000] "GET /kbb08124/2014/index.html HTTP/1.1" 404 1017
172.17.42.1 - - [05/Feb/2015:14:21:21 +0000] "GET /kbb08124/2014/index.html HTTP/1.1" 404 1017
172.17.42.1 - - [05/Feb/2015:14:21:24 +0000] "GET /kbb08124/2014/index.html HTTP/1.1" 404 1017
172.17.42.1 - - [05/Feb/2015:14:52:10 +0000] "GET /check-to-see-it-is-up HTTP/1.1" 404 1011
172.17.42.1 - - [05/Feb/2015:14:52:10 +0000] "GET /check-to-see-it-is-up HTTP/1.1" 404 1011
172.17.42.1 - - [05/Feb/2015:14:52:10 +0000] "GET /kbb08124/index.html HTTP/1.1" 404 1007
172.17.42.1 - - [05/Feb/2015:15:10:47 +0000] "GET /check-to-see-it-is-up HTTP/1.1" 404 1011
172.17.42.1 - - [05/Feb/2015:15:10:48 +0000] "GET /check-to-see-it-is-up HTTP/1.1" 404 1011
172.17.42.1 - - [05/Feb/2015:15:10:48 +0000] "GET /kbb08124/index.html HTTP/1.1" 404 1007
172.17.42.1 - - [05/Feb/2015:15:11:04 +0000] "GET /kbb08124/2014/index.html HTTP/1.1" 404 1017
172.17.42.1 - - [05/Feb/2015:16:07:39 +0000] "GET /check-to-see-it-is-up HTTP/1.1" 404 1011
172.17.42.1 - - [05/Feb/2015:16:07:39 +0000] "GET /kbb08124/ HTTP/1.1" 404 987
172.17.42.1 - - [05/Feb/2015:16:08:13 +0000] "GET /kbb08124/index.html HTTP/1.1" 404 1007
172.17.42.1 - - [05/Feb/2015:16:08:22 +0000] "GET /kbb08124/2014/index.html HTTP/1.1" 404 1017
172.17.42.1 - - [05/Feb/2015:16:13:16 +0000] "GET /kbb08124/ HTTP/1.1" 404 987
172.17.42.1 - - [05/Feb/2015:16:13:23 +0000] "GET /kbb08124/index.html HTTP/1.1" 404 1007
172.17.42.1 - - [05/Feb/2015:16:13:32 +0000] "GET /kbb08124/2014/index.html HTTP/1.1" 404 1017
172.17.42.1 - - [05/Feb/2015:16:19:40 +0000] "GET /kbb08124/2014/index.html HTTP/1.1" 404 1017
172.17.42.1 - - [05/Feb/2015:16:45:30 +0000] "GET /check-to-see-it-is-up HTTP/1.1" 404 1011
172.17.42.1 - - [05/Feb/2015:16:45:30 +0000] "GET /check-to-see-it-is-up HTTP/1.1" 404 1011
172.17.42.1 - - [05/Feb/2015:16:45:30 +0000] "GET /kbb08124/ HTTP/1.1" 404 987
172.17.42.1 - - [05/Feb/2015:16:45:36 +0000] "GET /kbb08124/index.html HTTP/1.1" 404 1007
172.17.42.1 - - [05/Feb/2015:16:45:39 +0000] "GET /kbb08124/index HTTP/1.1" 404 997
172.17.42.1 - - [05/Feb/2015:16:45:50 +0000] "GET /kbb08124/2014/index.html HTTP/1.1" 404 1017
172.17.42.1 - - [05/Feb/2015:19:06:33 +0000] "GET /check-to-see-it-is-up HTTP/1.1" 404 1011
172.17.42.1 - - [05/Feb/2015:19:06:33 +0000] "GET /check-to-see-it-is-up HTTP/1.1" 404 1011
172.17.42.1 - - [05/Feb/2015:19:06:33 +0000] "GET /kbb08124/ HTTP/1.1" 404 987
172.17.42.1 - - [05/Feb/2015:19:06:38 +0000] "GET /kbb08124/index.html HTTP/1.1" 404 1007
172.17.42.1 - - [05/Feb/2015:19:06:43 +0000] "GET /kbb08124/ HTTP/1.1" 404 987
172.17.42.1 - - [05/Feb/2015:20:12:50 +0000] "GET /check-to-see-it-is-up HTTP/1.1" 404 1011
172.17.42.1 - - [05/Feb/2015:20:12:50 +0000] "GET /check-to-see-it-is-up HTTP/1.1" 404 1011
172.17.42.1 - - [05/Feb/2015:20:12:50 +0000] "GET /kbb08124/ HTTP/1.1" 404 987
172.17.42.1 - - [05/Feb/2015:20:16:09 +0000] "GET /kbb08124/ HTTP/1.1" 404 987
